[
  {
    "pool": false,
    "school": true,
    "supermarket": false,
    "mosque": true
  },
  {
    "pool": true,
    "school": false,
    "supermarket": false,
    "mosque": false
  },
  {
    "pool": true,
    "school": true,
    "supermarket": false,
    "mosque": true
  },
  {
    "pool": false,
    "school": true,
    "supermarket": false,
    "mosque": false
  },
  {
    "pool": false,
    "school": true,
    "supermarket": true,
    "mosque": true
  }
]